<?xml version="1.0" encoding="utf-8"?>
<!-- Generator: Adobe Illustrator 22.0.0, SVG Export Plug-In . SVG Version: 6.00 Build 0)  -->
<svg version="1.1" id="Layer_1" xmlns="http://www.w3.org/2000/svg" xmlns:xlink="http://www.w3.org/1999/xlink" x="0px" y="0px"
	 viewBox="0 0 30 30" style="enable-background:new 0 0 30 30;" xml:space="preserve">
<style type="text/css">
	.st0{fill:#EFB348;}
	.st1{fill:#FAB349;}
</style>
<g>
	<circle class="st0" cx="14.8" cy="14.9" r="8.8"/>
	<path d="M14.4,9.1L14.4,9.1C14.4,9.1,14.4,9.1,14.4,9.1C14.3,9.1,14.3,9.1,14.4,9.1c-3.1,0-5.6,2.5-5.6,5.5c0,0.3,0.2,0.5,0.5,0.5
		c0.3,0,0.5-0.2,0.5-0.5c0-1.2,0.5-2.4,1.3-3.2c0.9-0.9,2-1.3,3.2-1.3c0.3,0,0.5-0.2,0.5-0.4c0-0.1,0-0.3-0.1-0.3
		C14.6,9.2,14.5,9.1,14.4,9.1z"/>
	<g>
		<rect x="14.3" y="26.6" class="st1" width="1" height="2.9"/>
		<rect x="14.3" y="0.2" class="st1" width="1" height="2.9"/>
		<rect x="5" y="4.1" transform="matrix(0.7071 -0.7071 0.7071 0.7071 -2.3055 5.5109)" class="st1" width="1" height="2.9"/>
		<rect x="23.7" y="22.7" transform="matrix(0.707 -0.7072 0.7072 0.707 -10.0385 24.1907)" class="st1" width="1" height="2.9"/>
		<rect x="0.2" y="14.4" class="st1" width="2.9" height="1"/>
		<rect x="26.6" y="14.4" class="st1" width="2.9" height="1"/>
		<rect x="4" y="23.7" transform="matrix(0.7071 -0.7071 0.7071 0.7071 -15.5095 10.9815)" class="st1" width="2.9" height="1"/>
		<rect x="22.7" y="5" transform="matrix(0.7071 -0.7071 0.7071 0.7071 3.1653 18.715)" class="st1" width="2.9" height="1"/>
		<rect x="14.3" y="0.2" width="1" height="2.9"/>
		<rect x="14.3" y="26.6" width="1" height="2.9"/>
		<rect x="5" y="4.1" transform="matrix(0.7071 -0.7071 0.7071 0.7071 -2.3055 5.5109)" width="1" height="2.9"/>
		<rect x="23.7" y="22.7" transform="matrix(0.707 -0.7072 0.7072 0.707 -10.0385 24.1907)" width="1" height="2.9"/>
		<rect x="0.2" y="14.4" width="2.9" height="1"/>
		<rect x="26.6" y="14.4" width="2.9" height="1"/>
		<rect x="4" y="23.7" transform="matrix(0.7071 -0.7071 0.7071 0.7071 -15.5095 10.9815)" width="2.9" height="1"/>
		<rect x="22.7" y="5" transform="matrix(0.7071 -0.7071 0.7071 0.7071 3.1653 18.715)" width="2.9" height="1"/>
	</g>
	<path d="M14.8,5.6L14.8,5.6c-5.1,0-9.3,4.2-9.3,9.3c0,2.5,1,4.8,2.7,6.5c1.7,1.7,4.1,2.7,6.5,2.7c0,0,0,0,0,0c2.5,0,4.8-1,6.5-2.7
		s2.7-4.1,2.7-6.5C24.1,9.8,19.9,5.6,14.8,5.6z M20.7,20.8c-1.6,1.6-3.7,2.4-5.9,2.4s-4.3-0.9-5.9-2.4c-1.6-1.6-2.4-3.7-2.4-5.9
		c0-2.2,0.9-4.3,2.4-5.9l0.3-0.3v0c3.3-3,8.3-2.9,11.5,0.3C23.9,12.3,23.9,17.5,20.7,20.8z"/>
</g>
</svg>
